Designator, Mid X, Mid Y, Layer, Rotation
C1, 210.893750, -120.550000, bottom, 180.000000
C2, 222.993750, -122.600000, bottom, 0.000000
C3, 220.193750, -116.050000, bottom, 90.000000
C4, 222.993750, -121.650000, bottom, 0.000000
C5, 210.893750, -121.550000, bottom, 180.000000
C6, 219.693750, -127.250000, bottom, -90.000000
C7, 215.693750, -127.250000, bottom, -90.000000
C8, 215.493750, -116.050000, bottom, 90.000000
C9, 222.993750, -118.850000, bottom, 0.000000
C10, 222.993750, -120.450000, bottom, 0.000000
C11, 221.143750, -116.050000, bottom, 90.000000
C12, 222.993750, -117.650000, bottom, 0.000000
C13, 223.338750, -139.557500, bottom, 180.000000
C14, 223.338750, -138.541500, bottom, 180.000000
C15, 207.743750, -123.050000, bottom, 90.000000
C16, 207.743750, -121.050000, bottom, -90.000000
C17, 237.200000, -112.200000, bottom, 0.000000
C18, 227.200000, -107.400000, bottom, 0.000000
C19, 227.200000, -108.400000, bottom, 0.000000
C20, 231.350000, -105.300000, bottom, 180.000000
C21, 158.283750, -129.000200, bottom, 0.000000
C22, 165.700000, -112.150000, bottom, -90.000000
C23, 160.100000, -112.150000, bottom, -90.000000
C24, 159.100000, -112.150000, bottom, -90.000000
C25, 163.533750, -129.000200, bottom, 0.000000
C26, 158.283750, -115.750200, bottom, 0.000000
D1, 233.288750, -119.650000, bottom, 90.000000
D2, 191.463750, -113.955000, bottom, 90.000000
D3, 199.643750, -114.435000, bottom, 180.000000
D4, 162.000000, -136.200000, bottom, -90.000000
D5, 185.800000, -107.400000, bottom, 0.000000
D6, 185.800000, -105.600000, bottom, 0.000000
J2, 171.093750, -122.450000, bottom, -90.000000
J3, 191.493750, -109.385000, bottom, 0.000000
J4, 199.643750, -108.750000, bottom, 0.000000
J5, 238.898750, -119.975000, bottom, -90.000000
LED143, 185.993750, -109.800000, bottom, -90.000000
R1, 197.343750, -140.050000, bottom, 180.000000
R3, 197.293750, -137.250000, bottom, 180.000000
R4, 194.600000, -120.800000, bottom, 90.000000
R6, 197.293750, -134.250000, bottom, 180.000000
R8, 197.293750, -131.450000, bottom, 180.000000
R9, 180.033750, -113.510000, bottom, 180.000000
R10, 225.493750, -121.650000, bottom, 0.000000
R11, 222.800000, -115.050000, bottom, 90.000000
R12, 202.093750, -113.650000, bottom, 180.000000
R13, 223.893750, -115.050000, bottom, 90.000000
R14, 174.903750, -128.250200, bottom, -90.000000
R15, 174.903750, -116.510200, bottom, 90.000000
R16, 217.600000, -108.400000, bottom, 90.000000
R17, 219.000000, -108.400000, bottom, 90.000000
R18, 202.093750, -114.650000, bottom, 0.000000
R19, 224.943750, -120.150000, bottom, 180.000000
R21, 224.943750, -119.150000, bottom, 180.000000
R22, 211.693750, -135.700000, bottom, 0.000000
R23, 185.000000, -109.800000, bottom, 90.000000
R24, 205.593750, -106.250000, bottom, 90.000000
R25, 207.000000, -106.250000, bottom, 90.000000
R26, 208.400000, -106.250000, bottom, 90.000000
R28, 208.743750, -121.050000, bottom, -90.000000
R32, 209.800000, -108.870000, bottom, 90.000000
R33, 226.700000, -109.900000, bottom, -90.000000
R39, 233.150000, -107.300000, bottom, 90.000000
R40, 223.300000, -111.600000, bottom, 0.000000
R41, 229.900000, -109.900000, bottom, -90.000000
R42, 231.800000, -109.900000, bottom, -90.000000
S1, 206.893750, -114.850000, bottom, 0.000000
S2, 206.893750, -136.550000, bottom, 0.000000
U1, 220.293750, -134.850000, bottom, 0.000000
U2, 216.893750, -121.650000, bottom, 90.000000
U3, 224.531250, -107.400000, bottom, 0.000000
U4, 230.850000, -107.400000, bottom, 180.000000
U5, 162.800000, -112.600000, bottom, -90.000000
Y1, 205.243750, -122.050000, bottom, 90.000000
LED1, 160.490000, -112.650000, top, 180.000000
LED2, 163.740000, -112.650000, top, 180.000000
LED3, 166.990000, -112.650000, top, 180.000000
LED4, 170.240000, -112.650000, top, 180.000000
LED5, 173.490000, -112.650000, top, 180.000000
LED6, 160.490000, -115.900000, top, 180.000000
LED7, 163.740000, -115.900000, top, 180.000000
LED8, 166.990000, -115.900000, top, 180.000000
LED9, 170.240000, -115.900000, top, 180.000000
LED10, 173.490000, -115.900000, top, 180.000000
LED11, 160.490000, -119.150000, top, 180.000000
LED12, 163.740000, -119.150000, top, 180.000000
LED13, 166.990000, -119.150000, top, 180.000000
LED14, 170.240000, -119.150000, top, 180.000000
LED15, 173.490000, -119.150000, top, 180.000000
LED16, 160.490000, -122.400000, top, 180.000000
LED17, 163.740000, -122.400000, top, 180.000000
LED18, 166.990000, -122.400000, top, 180.000000
LED19, 170.240000, -122.400000, top, 180.000000
LED20, 173.490000, -122.400000, top, 180.000000
LED21, 160.490000, -125.650000, top, 180.000000
LED22, 163.740000, -125.650000, top, 180.000000
LED23, 166.990000, -125.650000, top, 180.000000
LED24, 170.240000, -125.650000, top, 180.000000
LED25, 173.490000, -125.650000, top, 180.000000
LED26, 160.490000, -128.900000, top, 180.000000
LED27, 163.740000, -128.900000, top, 180.000000
LED28, 166.990000, -128.900000, top, 180.000000
LED29, 170.240000, -128.900000, top, 180.000000
LED30, 173.490000, -128.900000, top, 180.000000
LED31, 160.490000, -132.150000, top, 180.000000
LED32, 163.740000, -132.150000, top, 180.000000
LED33, 166.990000, -132.150000, top, 180.000000
LED34, 170.240000, -132.150000, top, 180.000000
LED35, 173.490000, -132.150000, top, 180.000000
LED36, 178.690000, -112.650000, top, 180.000000
LED37, 181.940000, -112.650000, top, 180.000000
LED38, 185.190000, -112.650000, top, 180.000000
LED39, 188.440000, -112.650000, top, 180.000000
LED40, 191.690000, -112.650000, top, 180.000000
LED41, 178.690000, -115.900000, top, 180.000000
LED42, 181.940000, -115.900000, top, 180.000000
LED43, 185.190000, -115.900000, top, 180.000000
LED44, 188.440000, -115.900000, top, 180.000000
LED45, 191.690000, -115.900000, top, 180.000000
LED46, 178.690000, -119.150000, top, 180.000000
LED47, 181.940000, -119.150000, top, 180.000000
LED48, 185.190000, -119.150000, top, 180.000000
LED49, 188.440000, -119.150000, top, 180.000000
LED50, 191.690000, -119.150000, top, 180.000000
LED51, 178.690000, -122.400000, top, 180.000000
LED52, 181.940000, -122.400000, top, 180.000000
LED53, 185.190000, -122.400000, top, 180.000000
LED54, 188.440000, -122.400000, top, 180.000000
LED55, 191.690000, -122.400000, top, 180.000000
LED56, 178.690000, -125.650000, top, 180.000000
LED57, 181.940000, -125.650000, top, 180.000000
LED58, 185.190000, -125.650000, top, 180.000000
LED59, 188.440000, -125.650000, top, 180.000000
LED60, 191.690000, -125.650000, top, 180.000000
LED61, 178.690000, -128.900000, top, 180.000000
LED62, 181.940000, -128.900000, top, 180.000000
LED63, 185.190000, -128.900000, top, 180.000000
LED64, 188.440000, -128.900000, top, 180.000000
LED65, 191.690000, -128.900000, top, 180.000000
LED66, 178.690000, -132.150000, top, 180.000000
LED67, 181.940000, -132.150000, top, 180.000000
LED68, 185.190000, -132.150000, top, 180.000000
LED69, 188.440000, -132.150000, top, 180.000000
LED70, 191.690000, -132.150000, top, 180.000000
LED71, 201.397200, -112.650000, top, 180.000000
LED72, 204.647200, -112.650000, top, 180.000000
LED73, 207.897200, -112.650000, top, 180.000000
LED74, 211.147200, -112.650000, top, 180.000000
LED75, 214.397200, -112.650000, top, 180.000000
LED76, 201.397200, -115.900000, top, 180.000000
LED77, 204.647200, -115.900000, top, 180.000000
LED78, 207.897200, -115.900000, top, 180.000000
LED79, 211.147200, -115.900000, top, 180.000000
LED80, 214.397200, -115.900000, top, 180.000000
LED81, 201.397200, -119.150000, top, 180.000000
LED82, 204.647200, -119.150000, top, 180.000000
LED83, 207.897200, -119.150000, top, 180.000000
LED84, 211.147200, -119.150000, top, 180.000000
LED85, 214.397200, -119.150000, top, 180.000000
LED86, 201.397200, -122.400000, top, 180.000000
LED87, 204.647200, -122.400000, top, 180.000000
LED88, 207.897200, -122.400000, top, 180.000000
LED89, 211.147200, -122.400000, top, 180.000000
LED90, 214.397200, -122.400000, top, 180.000000
LED91, 201.397200, -125.650000, top, 180.000000
LED92, 204.647200, -125.650000, top, 180.000000
LED93, 207.897200, -125.650000, top, 180.000000
LED94, 211.147200, -125.650000, top, 180.000000
LED95, 214.397200, -125.650000, top, 180.000000
LED96, 201.397200, -128.900000, top, 180.000000
LED97, 204.647200, -128.900000, top, 180.000000
LED98, 207.897200, -128.900000, top, 180.000000
LED99, 211.147200, -128.900000, top, 180.000000
LED100, 214.397200, -128.900000, top, 180.000000
LED101, 201.397200, -132.150000, top, 180.000000
LED102, 204.647200, -132.150000, top, 180.000000
LED103, 207.897200, -132.150000, top, 180.000000
LED104, 211.147200, -132.150000, top, 180.000000
LED105, 214.397200, -132.150000, top, 180.000000
LED106, 219.597200, -112.650000, top, 180.000000
LED107, 222.847200, -112.650000, top, 180.000000
LED108, 226.097200, -112.650000, top, 180.000000
LED109, 229.347200, -112.650000, top, 180.000000
LED110, 232.597200, -112.650000, top, 180.000000
LED111, 219.597200, -115.900000, top, 180.000000
LED112, 222.847200, -115.900000, top, 180.000000
LED113, 226.097200, -115.900000, top, 180.000000
LED114, 229.347200, -115.900000, top, 180.000000
LED115, 232.597200, -115.900000, top, 180.000000
LED116, 219.597200, -119.150000, top, 180.000000
LED117, 222.847200, -119.150000, top, 180.000000
LED118, 226.097200, -119.150000, top, 180.000000
LED119, 229.347200, -119.150000, top, 180.000000
LED120, 232.597200, -119.150000, top, 180.000000
LED121, 219.597200, -122.400000, top, 180.000000
LED122, 222.847200, -122.400000, top, 180.000000
LED123, 226.097200, -122.400000, top, 180.000000
LED124, 229.347200, -122.400000, top, 180.000000
LED125, 232.597200, -122.400000, top, 180.000000
LED126, 219.597200, -125.650000, top, 180.000000
LED127, 222.847200, -125.650000, top, 180.000000
LED128, 226.097200, -125.650000, top, 180.000000
LED129, 229.347200, -125.650000, top, 180.000000
LED130, 232.597200, -125.650000, top, 180.000000
LED131, 219.597200, -128.900000, top, 180.000000
LED132, 222.847200, -128.900000, top, 180.000000
LED133, 226.097200, -128.900000, top, 180.000000
LED134, 229.347200, -128.900000, top, 180.000000
LED135, 232.597200, -128.900000, top, 180.000000
LED136, 219.597200, -132.150000, top, 180.000000
LED137, 222.847200, -132.150000, top, 180.000000
LED138, 226.097200, -132.150000, top, 180.000000
LED139, 229.347200, -132.150000, top, 180.000000
LED140, 232.597200, -132.150000, top, 180.000000
LED141, 196.543200, -118.778800, top, 180.000000
LED142, 196.543200, -126.020800, top, 180.000000
